{
    "KPlugin": {
        "Id": "rocs_tikzfileformat",
        "Name": "PGF/TikZ Graph File Export Plugin",
        "Name[ca@valencia]": "Connector d'exportació del fitxer de grafs a PGF/TikZ",
        "Name[ca]": "Connector d'exportació del fitxer de grafs a PGF/TikZ",
        "Name[cs]": "Export souborů grafů PGF/TikZ",
        "Name[de]": "PGF/TikZ-Graphendateiexportmodul",
        "Name[el]": "Πρόσθετο εξαγωγής αρχείων γράφων PGF/TikZ",
        "Name[en_GB]": "PGF/TikZ Graph File Export Plugin",
        "Name[es]": "Complemento de exportación de archivo de grafos PGF/TikZ",
        "Name[et]": "PGF/TikZ graafifaili ekspordiplugin",
        "Name[eu]": "PGF/TikZ grafiko fitxategien esportatze-plugina",
        "Name[fi]": "PGF/TikZ-graafitiedoston vientiliitännäinen",
        "Name[fr]": "Module externe d'exportation de fichiers « PGF / TikZ »",
        "Name[gl]": "Complemento de exportación de ficheiros de gráficos PGF/TikZ",
        "Name[it]": "Estensione di esportazione a file PGF/TikZ",
        "Name[ka]": "PGF/TikZ გრაფკის ფაილის გატანის დამატება",
        "Name[ko]": "PGF/TikZ 그래프 파일 내보내기 플러그인",
        "Name[nl]": "Plugin voor exporteren van PGF/TikZ Graph-bestanden",
        "Name[pl]": "Wtyczka eksportu plików grafów PGF/TikZ",
        "Name[pt]": "'Plugin' de Exportação para Ficheiros de Grafos PGF/TikZ",
        "Name[pt_BR]": "Plugin para exportação de arquivo de grafo PGF/TikZ",
        "Name[ru]": "Модуль экспорта в файлы графов PGF/TikZ",
        "Name[sk]": "Exportný plugin súborov grafu PGF/TikZ",
        "Name[sl]": "Vstavek izvoza datotek grafov PGF/TikZ",
        "Name[sv]": "Exportinsticksprogram för PGF/TikZ-graffilformat",
        "Name[tr]": "PGF/TikZ Grafik Dosya Dışa Aktarma Eklentisi",
        "Name[uk]": "Додаток експортування файлів графів PGF/TikZ",
        "Name[x-test]": "xxPGF/TikZ Graph File Export Pluginxx",
        "Name[zh_CN]": "PGF/TikZ 图形文件导出插件",
        "Name[zh_TW]": "PGF/TikZ 圖形檔匯出外掛程式"
    }
}
